<?xml version="1.0" encoding="UTF-8"?>
<svg width="62px" height="82px" viewBox="0 0 62 82" version="1.1" xmlns="http://www.w3.org/2000/svg" xmlns:xlink="http://www.w3.org/1999/xlink">
    <!-- Generator: Sketch 53 (72520) - https://sketchapp.com -->
    <title>Group 4</title>
    <desc>Created with Sketch.</desc>
    <defs>
        <filter x="-25.0%" y="-18.2%" width="150.0%" height="136.5%" filterUnits="objectBoundingBox" id="filter-1">
            <feOffset dx="-1" dy="3" in="SourceAlpha" result="shadowOffsetOuter1"></feOffset>
            <feGaussianBlur stdDeviation="2" in="shadowOffsetOuter1" result="shadowBlurOuter1"></feGaussianBlur>
            <feColorMatrix values="0 0 0 0 0   0 0 0 0 0   0 0 0 0 0  0 0 0 0.5 0" type="matrix" in="shadowBlurOuter1" result="shadowMatrixOuter1"></feColorMatrix>
            <feMerge>
                <feMergeNode in="shadowMatrixOuter1"></feMergeNode>
                <feMergeNode in="SourceGraphic"></feMergeNode>
            </feMerge>
        </filter>
        <linearGradient x1="23.3747261%" y1="0%" x2="76.6252739%" y2="100%" id="linearGradient-2">
            <stop stop-color="#BD0000" offset="0%"></stop>
            <stop stop-color="#410000" offset="100%"></stop>
        </linearGradient>
    </defs>
    <g id="Page-1" stroke="none" stroke-width="1" fill="none" fill-rule="evenodd">
        <g id="Artboard" transform="translate(-38.000000, -1185.000000)">
            <g id="Oval" transform="translate(43.000000, 886.000000)">
                <g id="Group-4" transform="translate(0.000000, 300.000000)">
                    <g id="Group-5">
                        <g id="Oval-2" filter="url(#filter-1)" transform="translate(27.000000, 37.000000) scale(-1, 1) translate(-27.000000, -37.000000) " fill="url(#linearGradient-2)">
                            <path d="M10.7610065,74 C34.6412432,74 54,57.4345357 54,37 C54,16.5654643 34.6412432,0 10.7610065,0 C-13.1192302,0 10.1994611,16.5654643 10.1994611,37 C10.1994611,57.4345357 -13.1192302,74 10.7610065,74 Z" id="Oval"></path>
                        </g>
                        <g id="arrow-pointing-to-right" transform="translate(29.000000, 37.000000) scale(-1, 1) translate(-29.000000, -37.000000) translate(14.000000, 26.000000)" fill="#FFFFFF" fill-rule="nonzero">
                            <path d="M29.5913998,9.94885939 L20.6639078,0.435333021 C20.1192192,-0.145111007 19.2358439,-0.145111007 18.6911553,0.435333021 C18.1463551,1.01589597 18.1463551,1.95702156 18.6911553,2.53758451 L25.2373504,9.51349664 L1.39492063,9.51349664 C0.624589661,9.51349664 0,10.1790867 0,10.9999851 C0,11.8207646 0.624589661,12.4864736 1.39492063,12.4864736 L25.2373504,12.4864736 L18.6913785,19.4623858 C18.1465783,20.0429487 18.1465783,20.9840743 18.6913785,21.5646372 C18.963667,21.8546809 19.3207666,22 19.6777547,22 C20.0347428,22 20.3917309,21.8546809 20.664131,21.5646372 L29.5913998,12.0511109 C30.1362001,11.4705479 30.1362001,10.5294223 29.5913998,9.94885939 Z" id="Path"></path>
                        </g>
                    </g>
                </g>
            </g>
        </g>
    </g>
</svg>