<?xml version="1.0" encoding="UTF-8"?>
<svg width="823px" height="611px" viewBox="0 0 823 611" version="1.1" xmlns="http://www.w3.org/2000/svg" xmlns:xlink="http://www.w3.org/1999/xlink">
    <!-- Generator: Sketch 53 (72520) - https://sketchapp.com -->
    <title>Rectangle 2</title>
    <desc>Created with Sketch.</desc>
    <g id="Page-1" stroke="none" stroke-width="1" fill="none" fill-rule="evenodd" opacity="0.0950055804">
        <g id="Desktop-HD" transform="translate(-306.000000, -102.000000)" fill="#000000">
            <path d="M501.060891,288.018357 C322.386979,302.691514 269.9617,388.896314 343.785053,546.632757 C454.520082,783.237421 1041.89719,770.398408 1110.90598,445.7548 C1179.91477,121.111191 891.040777,-56.8008435 764.257193,113.774612 C679.734803,227.491582 592.002703,285.572831 501.060891,288.018357 Z" id="Rectangle-2" transform="translate(716.409133, 378.330120) rotate(16.000000) translate(-716.409133, -378.330120) "></path>
        </g>
    </g>
</svg>